…
```r
library(nycflights13)
library(ggstat)

arr_time <- flights$arr_time
dep_time <- flights$dep_time
arr_bins <- bin_fixed(arr_time, bins = 150)
dep_bins <- bin_fixed(dep_time, bins = 150)
arr_stats <- compute_stat(arr_bins, arr_time)
dep_stats <- compute_stat(dep_bins, dep_time)
```

```r
dep_stats
#> # A tibble: 242 x 3
#>    xmin_ xmax_ count_
#>    <dbl> <dbl>  <dbl>
#>  1    NA    NA   8255
#>  2    -5     5    133
#>  3     5    15    224
#>  4    15    25    162
#>  5    25    35    138
#>  6    35    45    114
#>  7    45    55     82
#>  8    55    65     28
#>  9    65    75      0
#> 10    75    85      0
#> # … with 232 more rows
```
…
