…
Now imagine we want to fit a model to each country and look at dot plots
of slope and intercept.

`dplyr::group_by()` + `tidyr::nest()` created a *nested data frame* and
is an alternative to splitting into country-specific data frames. Those
data frames end up, instead, in a list-column. The `country` variable
remains as a normal factor.

``` r
gap_nested <- gap %>%
  group_by(country) %>%
  nest()

gap_nested
#> # A tibble: 33 x 2
#>    country          data             
#>    <fct>            <list>           
#>  1 Afghanistan      <tibble [12 × 6]>
#>  2 Bahrain          <tibble [12 × 6]>
#>  3 Bangladesh       <tibble [12 × 6]>
#>  4 Cambodia         <tibble [12 × 6]>
#>  5 China            <tibble [12 × 6]>
#>  6 Hong Kong, China <tibble [12 × 6]>
#>  7 India            <tibble [12 × 6]>
#>  8 Indonesia        <tibble [12 × 6]>
#>  9 Iran             <tibble [12 × 6]>
#> 10 Iraq             <tibble [12 × 6]>
#> # ... with 23 more rows
…
gap_fitted <- gap_nested %>%
  mutate(fit = map(data, ~ lm(lifeExp ~ yr1952, data = .x)))
gap_fitted
#> # A tibble: 33 x 3
#>    country          data              fit     
#>    <fct>            <list>            <list>  
#>  1 Afghanistan      <tibble [12 × 6]> <S3: lm>
#>  2 Bahrain          <tibble [12 × 6]> <S3: lm>
#>  3 Bangladesh       <tibble [12 × 6]> <S3: lm>
#>  4 Cambodia         <tibble [12 × 6]> <S3: lm>
#>  5 China            <tibble [12 × 6]> <S3: lm>
#>  6 Hong Kong, China <tibble [12 × 6]> <S3: lm>
#>  7 India            <tibble [12 × 6]> <S3: lm>
#>  8 Indonesia        <tibble [12 × 6]> <S3: lm>
#>  9 Iran             <tibble [12 × 6]> <S3: lm>
#> 10 Iraq             <tibble [12 × 6]> <S3: lm>
#> # ... with 23 more rows
…
gap_fitted <- gap_fitted %>%
  mutate(
    intercept = map_dbl(fit, ~ coef(.x)[["(Intercept)"]]),
    slope = map_dbl(fit, ~ coef(.x)[["yr1952"]])
  )
gap_fitted
#> # A tibble: 33 x 5
#>    country          data              fit      intercept slope
#>    <fct>            <list>            <list>       <dbl> <dbl>
#>  1 Afghanistan      <tibble [12 × 6]> <S3: lm>      29.9 0.275
#>  2 Bahrain          <tibble [12 × 6]> <S3: lm>      52.7 0.468
#>  3 Bangladesh       <tibble [12 × 6]> <S3: lm>      36.1 0.498
#>  4 Cambodia         <tibble [12 × 6]> <S3: lm>      37.0 0.396
#>  5 China            <tibble [12 × 6]> <S3: lm>      47.2 0.531
#>  6 Hong Kong, China <tibble [12 × 6]> <S3: lm>      63.4 0.366
#>  7 India            <tibble [12 × 6]> <S3: lm>      39.3 0.505
#>  8 Indonesia        <tibble [12 × 6]> <S3: lm>      36.9 0.635
#>  9 Iran             <tibble [12 × 6]> <S3: lm>      45.0 0.497
#> 10 Iraq             <tibble [12 × 6]> <S3: lm>      50.1 0.235
#> # ... with 23 more rows
```
…
