Creating and Preprocessing a Design Matrix with Recipes
…
Principal Component Analysis

> pca <- basic %>% step_pca(all_predictors(), threshold = .9)
> summary(pca)

# A tibble: 59 x 4
                  variable    type      role   source
                     <chr>   <chr>     <chr>    <chr>
 1                AngleCh1 numeric predictor original
 2                 AreaCh1 numeric predictor original
 3             AvgIntenCh1 numeric predictor original
 4             AvgIntenCh2 numeric predictor original
 5             AvgIntenCh3 numeric predictor original
 6             AvgIntenCh4 numeric predictor original
 7  ConvexHullAreaRatioCh1 numeric predictor original
 8 ConvexHullPerimRatioCh1 numeric predictor original
 9     DiffIntenDensityCh1 numeric predictor original
10     DiffIntenDensityCh3 numeric predictor original
# ... with 49 more rows
…
Distance to Each Class Centroid

> dist_to_classes <- basic %>% 
+   step_classdist(all_predictors(), class = "Class") %>%
+   # Take log of the new distance features
+   step_log(starts_with("classdist"))
> 
> dist_to_classes <- prepare(dist_to_classes, verbose = FALSE)
> 
> # All variables are retained plus an additional one for each class
> dist_to_classes <- bake(dist_to_classes, newdata = seg_test, matches("[Cc]lass"))
> dist_to_classes

# A tibble: 1,010 x 3
    Class classdist_PS classdist_WS
   <fctr>        <dbl>        <dbl>
 1     PS     1.530814     1.736136
 2     PS     1.352474     1.461523
 3     WS     1.711062     1.529533
 4     WS     1.754704     1.610803
 5     PS     1.472574     1.653600
 6     WS     1.481809     1.471768
 7     WS     1.493837     1.548758
 8     WS     1.553071     1.396700
 9     PS     1.535125     1.707483
10     PS     1.547865     1.572808
# ... with 1,000 more rows
…
