…
```{r}
my_keywords <- c("math")

keywords_tbl %>%
  filter(keyword %in% my_keywords) %>%
  select(page) %>%
  left_join(keywords_tbl, by = "page") %>%
  group_by(keyword) %>%
  summarize(count = n()) %>%
  filter(!keyword %in% my_keywords) %>%
  arrange(desc(count)) %>%
```

```
# A tibble: 1,000 x 2
       keyword count
         <chr> <dbl>
 1        help  1727
 2     algebra  1726
 3    calculus  1721
 4    geometry  1705
 5  statistics  1703
 6       forum  1703
 7 probability  1703
 8     answers  1701
 9       latex  1701
10  activities   235
# ... with 990 more rows
```
…
